Spatial autocorrelation: what’s the problem? – Geospatial Stuff
…
1

Make the variable names into a name column and the values into a value column.

2

Split the name column into Raster and Sampling columns.

# A tibble: 800 × 3
   Raster   Sampling   Mean
   <ord>    <ord>     <dbl>
 1 Random   Grid      0.495
 2 Smoothed Grid      0.499
 3 Random   Poisson   0.501
 4 Smoothed Poisson   0.501
 5 Random   Even      0.505
 6 Smoothed Even      0.500
 7 Random   Clustered 0.501
 8 Smoothed Clustered 0.487
 9 Random   Grid      0.502
10 Smoothed Grid      0.499
# ℹ 790 more rows
…
